<svg xmlns="http://www.w3.org/2000/svg" width="16" height="16" version="1.1">
 <path style="fill:#c7d6d0" d="M 6.25,1 6.09,2.84 A 5.5,5.5 0 0 0 4.49,3.77 L 2.81,2.98 1.06,6.01 2.58,7.07 A 5.5,5.5 0 0 0 2.5,8 5.5,5.5 0 0 0 2.58,8.93 L 1.06,9.98 2.81,13.01 4.48,12.22 A 5.5,5.5 0 0 0 6.09,13.15 L 6.25,15 H 9.75 L 9.9,13.15 A 5.5,5.5 0 0 0 11.51,12.22 L 13.19,13.01 14.94,9.98 13.41,8.92 A 5.5,5.5 0 0 0 13.5,8 5.5,5.5 0 0 0 13.42,7.06 L 14.94,6.01 13.19,2.98 11.51,3.77 A 5.5,5.5 0 0 0 9.9,2.84 L 9.75,1 Z M 8,6 A 2,2 0 0 1 10,8 2,2 0 0 1 8,10 2,2 0 0 1 6,8 2,2 0 0 1 8,6 Z"/>
</svg>
