<svg xmlns="http://www.w3.org/2000/svg" width="16" height="16" version="1.1">
 <path style="fill:#c7d6d0" d="M 6.88,4.5 3.13,15 H 5 L 5.75,13 H 9.5 L 10.25,15 H 12.34 L 8.38,4.5 Z M 7.625,7.5 8.98,11.5 H 6.27 Z"/>
</svg>
