<svg xmlns="http://www.w3.org/2000/svg" width="16" height="16" version="1.1">
 <path style="fill:#c7d6d0" d="M 3,0 C 2,0 2,1 2,1 V 9 C 2,10 3,10 3,10 H 13 C 13,10 14,10 14,9 V 1 C 14,0 13,0 13,0 Z M 6,3.5 9,6.5 10.5,5 12,6.5 V 8 H 4 V 5.5 Z"/>
 <path style="fill:#c7d6d0" d="M 5,12 8,16 11,12 Z"/>
</svg>
