<svg xmlns="http://www.w3.org/2000/svg" width="16" height="16" version="1.1">
 <defs>
  <style id="current-color-scheme" type="text/css">
   .ColorScheme-Text { color:#c7d6d0; } .ColorScheme-Highlight { color:#4285f4; } .ColorScheme-NeutralText { color:#ff9800; } .ColorScheme-PositiveText { color:#4caf50; } .ColorScheme-NegativeText { color:#f44336; }
  </style>
 </defs>
 <path style="fill:currentColor" class="ColorScheme-Text" d="M 8.1113,1 11.27,9.3067 14.977,7.4532 C 14.692,3.8557 11.72,1.058 8.1113,1 Z M 7.6094,1 C 4.0923,1.2007 1.2723,3.9976 1.0254,7.5118 L 4.1855,5.254 6.6758,10.234 Z M 8.2852,4.2735 7.3242,13.766 3.8145,6.7462 1.0449,8.7247 C 1.4158,12.288 4.4174,14.996 8,15 11.641,14.997 14.672,12.203 14.971,8.5743 L 10.729,10.695 Z"/>
</svg>
