<svg xmlns="http://www.w3.org/2000/svg" width="16" height="16" viewBox="0 0 16 16">
 <defs>
  <style id="current-color-scheme" type="text/css">
   .ColorScheme-Text { color:#c7d6d0; } .ColorScheme-Highlight { color:#4285f4; } .ColorScheme-NeutralText { color:#ff9800; } .ColorScheme-PositiveText { color:#4caf50; } .ColorScheme-NegativeText { color:#f44336; }
  </style>
 </defs>
 <path style="fill:currentColor" class="ColorScheme-Text" d="M 3 10 A 1.0001 1.0001 0 0 0 2 11 L 2 13 A 1.0001 1.0001 0 0 0 3 14 L 13 14 A 1.0001 1.0001 0 0 0 14 13 L 14 11 A 1.0001 1.0001 0 0 0 13 10 L 12 10 A 1.0001 1.0001 0 0 0 11 11 L 5 11 A 1.0001 1.0001 0 0 0 4 10 L 3 10 z"/>
</svg>
