<svg xmlns="http://www.w3.org/2000/svg" width="16" height="16" viewBox="0 0 16 16">
 <defs>
  <style id="current-color-scheme" type="text/css">
   .ColorScheme-Text { color:#c7d6d0; } .ColorScheme-Highlight { color:#4285f4; } .ColorScheme-NeutralText { color:#ff9800; } .ColorScheme-PositiveText { color:#4caf50; } .ColorScheme-NegativeText { color:#f44336; }
  </style>
 </defs>
 <path style="fill:currentColor" class="ColorScheme-Text" d="m8 0l-1.1152 3.1348c-0.5527 0.1265-1.067 0.3456-1.5332 0.6386l-3.0078-1.4296 1.4296 3.0078c-0.293 0.4662-0.5121 0.9805-0.6386 1.5332l-3.1348 1.1152 3.1348 1.1152c0.1265 0.5527 0.3456 1.0668 0.6386 1.5328l-1.4296 3.008 3.0097-1.431c0.4659 0.292 0.9791 0.514 1.5313 0.64l1.1152 3.135 1.1152-3.135c0.5522-0.126 1.0658-0.348 1.5308-0.64l3.01 1.431-1.431-3.01c0.292-0.465 0.514-0.9786 0.64-1.5308l3.135-1.1152-3.135-1.1152c-0.126-0.5522-0.348-1.0654-0.64-1.5313l1.431-3.0097-3.008 1.4296c-0.466-0.293-0.9801-0.5121-1.5328-0.6386l-1.1152-3.1348zm-2 6a1 1 0 0 1 1 1 1 1 0 0 1 -1 1 1 1 0 0 1 -1 -1 1 1 0 0 1 1 -1zm4 0a1 1 0 0 1 1 1 1 1 0 0 1 -1 1 1 1 0 0 1 -1 -1 1 1 0 0 1 1 -1zm0.498 3.4961a0.50005 0.50005 0 0 1 0.314 0.8949s-1.2948 1.105-2.81 1.109c-1.5104 0.004-2.8086-1.074-2.8086-1.074a0.50005 0.50005 0 1 1 0.6132 -0.7893s1.2034 0.8663 2.1934 0.8633c0.9852-0.002 2.189-0.8906 2.189-0.8906a0.50005 0.50005 0 0 1 0.309 -0.1133z"/>
</svg>
