<svg xmlns="http://www.w3.org/2000/svg" width="16" height="16" version="1.1">
 <defs>
  <style id="current-color-scheme" type="text/css">
   .ColorScheme-Text { color:#c7d6d0; } .ColorScheme-Highlight { color:#4285f4; } .ColorScheme-NeutralText { color:#ff9800; } .ColorScheme-PositiveText { color:#4caf50; } .ColorScheme-NegativeText { color:#f44336; }
  </style>
 </defs>
 <path style="fill:currentColor" class="ColorScheme-Text" d="M 8.7793,1 C 7.5785,1.0124 6.2897,1.2539 5.4124,2.1418 4.4214,3.0853 4.0654,4.698 4.7687,5.9098 5.304,6.8993 6.4527,7.439 7.5571,7.3594 7.943,7.2839 8.0166,7.3549 7.8187,7.7314 7.6741,8.3103 7.9563,8.861 8.3281,9.2852 6.855,9.376 5.2248,9.5967 4.1517,10.715 3.4453,11.514 3.2417,12.762 3.9002,13.634 4.7432,14.752 6.2639,15.037 7.5869,14.996 9.159,14.959 10.894,14.369 11.729,12.949 12.322,11.956 12.242,10.587 11.426,9.7377 10.897,9.1362 10.216,8.7026 9.6445,8.1484 9.2101,7.5878 9.7107,6.9052 10.202,6.5849 10.974,6.0224 11.556,5.1311 11.504,4.1465 11.531,3.1635 10.968,2.2568 10.223,1.6602 H 11.342 L 12.5,1 Z M 7.6445,1.6074 C 8.6147,1.6153 9.2737,2.5065 9.5915,3.3328 9.895,4.1726 10.081,5.1489 9.7124,5.9963 9.2017,6.9296 7.7476,7.151 7.0326,6.3281 6.1683,5.4257 5.8383,4.0702 6.0586,2.8555 6.23,2.1382 6.9055,1.603 7.6445,1.6074 Z M 8.2793,9.7969 C 8.5947,9.8097 8.9537,9.7256 9.188,9.9958 9.9221,10.541 10.862,11.139 10.91,12.154 11.005,13.194 10.055,14.036 9.0792,14.157 7.9036,14.326 6.5423,14.216 5.6453,13.352 4.8912,12.638 4.8772,11.263 5.7168,10.607 6.413,10 7.3906,9.8657 8.2793,9.7969 Z"/>
</svg>
