<svg xmlns="http://www.w3.org/2000/svg" width="16" height="16" version="1.1">
 <defs>
  <style id="current-color-scheme" type="text/css">
   .ColorScheme-Text { color:#c7d6d0; } .ColorScheme-Highlight { color:#4285f4; } .ColorScheme-NeutralText { color:#ff9800; } .ColorScheme-PositiveText { color:#4caf50; } .ColorScheme-NegativeText { color:#f44336; }
  </style>
 </defs>
 <path style="fill:currentColor" class="ColorScheme-Text" d="M 1,3 V 5 H 5.5 L 6.5,7 7.5,5 6.5,3 Z M 11,9 V 11 H 10.5 L 9.5,9 8.5,11 9.5,13 H 11 V 15 L 15,12 Z M 11,1 V 3 H 9.5 L 5.5,11 H 1 V 13 H 6.5 L 10.5,5 H 11 V 7 L 15,4 Z"/>
</svg>
