<svg xmlns="http://www.w3.org/2000/svg" width="16" height="16" version="1.1">
 <defs>
  <style id="current-color-scheme" type="text/css">
   .ColorScheme-Text { color:#c7d6d0; } .ColorScheme-Highlight { color:#4285f4; } .ColorScheme-NeutralText { color:#ff9800; } .ColorScheme-PositiveText { color:#4caf50; } .ColorScheme-NegativeText { color:#f44336; }
  </style>
 </defs>
 <path style="fill:currentColor" class="ColorScheme-Text" d="M 6.9805,0 C 6.7531,0.00458 6.534,0.08656 6.3594,0.23242 L 0.35938,5.2324 C -0.21,5.7069 -0.08364,6.6244 0.60547,6.9199 L 4.3633,8.5312 3.0215,14.791 C 2.8213,15.73 3.8983,16.345 4.6133,15.789 L 10.541,11.178 14.605,12.92 C 15.845,13.453 16.59,11.593 15.395,11.08 L 12.348,9.7734 13.613,8.7891 C 14.746,7.9828 13.448,6.3126 12.387,7.2109 L 10.248,8.875 6.6641,7.3379 7.9785,1.209 C 8.1133,0.57852 7.6252,0 6.9805,0 Z M 5.4141,3.623 4.791,6.5352 2.8945,5.7227 Z M 6.2383,9.334 8.4434,10.279 5.5527,12.525 Z"/>
</svg>
