<svg xmlns="http://www.w3.org/2000/svg" width="24" height="24" version="1">
 <defs>
  <style id="current-color-scheme" type="text/css">
   .ColorScheme-Text { color:#c7d6d0; } .ColorScheme-Highlight { color:#4285f4; } .ColorScheme-NeutralText { color:#ff9800; } .ColorScheme-PositiveText { color:#4caf50; } .ColorScheme-NegativeText { color:#f44336; }
  </style>
 </defs>
 <path style="fill:currentColor" class="ColorScheme-Text" d="m10.529 19.993c-1.7569-0.184-2.981-0.697-3.8855-1.629-0.3654-0.376-0.6137-0.723-0.82-1.144-0.4367-0.891-0.5735-1.893-0.3598-2.634 0.2126-0.737 0.696-1.55 1.3766-2.314 0.3779-0.425 0.569-0.7 0.7439-1.046 0.2108-0.417 0.2335-0.697 0.2158-1.084-0.0172-0.3761-0.0962-0.5382-0.2983-0.7093-0.1915-0.1621-0.2705-0.2514-0.8631-0.2226-0.5785 0.0282-0.8622-0.0077-1.1385-0.144-0.2143-0.1057-0.2903-0.2251-0.224-0.3522 0.3445-0.2743 0.4653-0.5743 0.8439-0.7139-0.5541-0.4822-1.1011-0.9866-1.12-1.707 0.038919-0.38583 0.38873-0.29304 0.38873-0.29304 0.54854 0.11338 1.1155 0.2274 1.6321 0.24522 0.14856-0.02056 0.30518-0.06098 0.34804-0.08983 0.04287-0.02885 0.15969-0.19981 0.25961-0.37992 0.38943-0.70196 0.80182-1.1552 1.2638-1.3888 0.53234-0.26927 1.2855-0.41331 2.0005-0.38256 0.8595 0.03697 1.5895 0.34022 2.1856 0.90795 0.40979 0.39025 0.68098 0.48784 1.0708 0.38529 0.27418-0.07214 0.28037-0.07178 0.28037 0.01598 0 0.11532-0.09019 0.26476-0.22863 0.37881l-0.12753 0.10506 0.12856 0.0779c0.17717 0.10735 0.15618 0.19368-0.0546 0.22464-0.17556 0.02579-0.30715 0.08521-0.30715 0.13869 0 0.01889 0.0252 0.18253 0.056 0.36366 0.07557 0.44438 0.04865 1.3054-0.0541 1.7304-0.15932 0.65893-0.40031 1.1229-0.81212 1.5634-0.32013 0.2973-1.2256 0.90676-1.3099 0.96131 0.03962 0 0.3863-0.02077 0.61839 0.000224 0.84948 0.07683 1.4411 0.22293 2.2941 0.62857 0.8057 0.38313 1.1481 0.42444 1.5941 0.19233 0.28454-0.14811 0.69187-0.4641 0.99625-0.8827 0.26041-0.35812 0.41534-0.50986 0.65721-0.50986 0.23689 0 0.40706 0.15931 0.58636 0.43857 0.25391 0.39547 0.39241 0.67789 0.49095 1.3668 0.07041 0.49229 0.05064 1.6479-0.03662 2.1387-0.52145 2.9332-2.356 4.908-5.1567 5.551-0.75588 0.17353-1.0604 0.20473-2.1079 0.2159-0.54341 0.0058-1.0504 0.004-1.1267-0.0039z"/>
 <circle style="fill:currentColor" class="ColorScheme-Highlight" cx="18" cy="7" r="2"/>
</svg>
