<svg xmlns="http://www.w3.org/2000/svg" width="24" height="24" version="1.1">
 <defs>
  <style id="current-color-scheme" type="text/css">
   .ColorScheme-Text { color:#c7d6d0; } .ColorScheme-Highlight { color:#4285f4; } .ColorScheme-NeutralText { color:#ff9800; } .ColorScheme-PositiveText { color:#4caf50; } .ColorScheme-NegativeText { color:#f44336; }
  </style>
 </defs>
 <path style="fill:currentColor" class="ColorScheme-Text" d="M 3.0440579,5.0000005 C 2.241476,4.9989934 1.7389038,5.7653347 2.139761,6.3789067 L 4.5030422,9.9882815 5.0010891,10.75 v 4.955078 C 5.0010891,17.530019 6.4454654,19 8.2393703,19 H 18.762808 c 1.793905,0 3.238281,-1.469981 3.238281,-3.294922 V 8.2949224 c 0,-1.8249412 -1.444376,-3.2949219 -3.238281,-3.2949219 H 12.48937 8.2393703 7.7667141 Z m 5.4570312,3 h 9.9999999 c 0.277,0 0.5,0.223 0.5,0.5 0,0.277 -0.223,0.5 -0.5,0.5 H 8.5010891 c -0.277,0 -0.5,-0.223 -0.5,-0.5 0,-0.277 0.223,-0.5 0.5,-0.5 z m 0,2.9999995 h 9.9999999 c 0.277,0 0.5,0.223 0.5,0.5 0,0.277 -0.223,0.5 -0.5,0.5 H 8.5010891 c -0.277,0 -0.5,-0.223 -0.5,-0.5 0,-0.277 0.223,-0.5 0.5,-0.5 z m 0,3 h 5.9999999 c 0.277,0 0.5,0.223 0.5,0.5 0,0.277 -0.223,0.5 -0.5,0.5 H 8.5010891 c -0.277,0 -0.5,-0.223 -0.5,-0.5 0,-0.277 0.223,-0.5 0.5,-0.5 z"/>
</svg>
