<svg xmlns="http://www.w3.org/2000/svg" width="24" height="24" version="1.1">
 <defs>
  <style id="current-color-scheme" type="text/css">
   .ColorScheme-Text { color:#c7d6d0; } .ColorScheme-Highlight { color:#4285f4; } .ColorScheme-NeutralText { color:#ff9800; } .ColorScheme-PositiveText { color:#4caf50; } .ColorScheme-NegativeText { color:#f44336; }
  </style>
 </defs>
 <path style="opacity:0.3;fill:currentColor" class="ColorScheme-Text" d="M 10,5 V 6 H 7 v 12 c 0,0.55 0.446,1 1,1 h 8 c 0.554,0 1,-0.45 1,-1 V 6 H 14 V 5 Z m 2,3 c 1.645,0 3,1.355 3,3 0,1.2567 -0.893,2.1406 -2,2.584 V 17 H 10 V 12 H 9 V 11 C 9,9.355 10.355,8 12,8 Z"/>
 <path style="fill:currentColor" class="ColorScheme-Text" d="m 12,9 a 2,2 0 0 0 -2,2 h 1 a 1,1 0 0 1 1,-1 1,1 0 0 1 1,1 1,1 0 0 1 -1,1 h -1 v 2 h 1 v -1 a 2,2 0 0 0 2,-2 2,2 0 0 0 -2,-2 z m -1,6 v 1 h 1 v -1 z"/>
</svg>
