<svg xmlns="http://www.w3.org/2000/svg" width="24" height="24" version="1.1">
 <defs>
  <style id="current-color-scheme" type="text/css">
   .ColorScheme-Text { color:#c7d6d0; } .ColorScheme-Highlight { color:#4285f4; } .ColorScheme-NeutralText { color:#ff9800; } .ColorScheme-PositiveText { color:#4caf50; } .ColorScheme-NegativeText { color:#f44336; }
  </style>
 </defs>
 <path style="fill:currentColor" class="ColorScheme-Text" d="M 6.8447761,3.9999997 C 6.6989625,4.1101502 5.4065048,6.1373434 4.871215,7.0225442 4.2417539,8.0636185 4.0636288,8.1968253 4.0124661,8.5931433 3.9408383,9.1475729 4.1243794,9.2404619 6.0047635,11.18791 c 0.6324988,0.655148 1.1615982,1.228242 1.1772668,1.273965 0.070669,0.205593 0.014644,0.515917 -0.1904861,1.058516 -0.2815581,0.744676 -0.3076508,0.95227 -0.1717499,1.401987 0.1478923,0.488723 0.3989542,0.881883 0.7775582,1.224005 0.3520633,0.316543 0.4886784,0.633709 0.6963677,0.640104 0.074346,0.0016 0.4936091,-0.426952 0.9305715,-0.661961 v -0.0031 C 10.176397,15.611441 10.31705,15.505284 11.044838,14.7694 c 0.611875,-0.619017 0.727136,-0.805252 0.640159,-1.039781 -0.02958,-0.07932 -0.491681,-0.56425 -1.024253,-1.077273 C 9.4023015,11.440371 9.4574211,11.931911 9.936272,10.616499 10.220539,9.8353749 10.293382,9.5932249 10.292263,9.3767609 10.290664,9.0496669 10.184227,8.8065192 9.9706218,8.6367371 9.8841256,8.5678331 9.1239744,8.2156693 8.2812292,7.8561214 7.4383234,7.4968932 6.7545469,7.1795409 6.7604626,7.1504446 6.7738928,7.0839386 7.7033251,6.9699512 8.3780333,6.9506069 l 0.5090033,-0.01249 0.9399403,0.3746956 c 0.8186031,0.3266146 0.9472451,0.3922014 1.0086401,0.5245738 0.03869,0.083452 0.06934,0.1960807 0.0687,0.2497971 -6.39e-4,0.054516 -0.152428,1.1314865 -0.337253,2.0265996 -0.323604,1.567526 -0.333917,1.309345 -0.249818,1.405108 0.133502,0.151878 1.443111,0.503381 1.851773,0.46837 0.46654,-0.04237 1.418272,-0.365743 1.514522,-0.474615 0.07787,-0.08825 0.0641,0.133492 -0.252941,-1.398863 -0.185141,-0.8951131 -0.336615,-1.9728833 -0.337254,-2.0265996 -6.4e-4,-0.054356 0.02969,-0.1657054 0.0687,-0.2497971 0.06156,-0.1323724 0.182766,-0.1961406 0.911835,-0.4871043 1.175141,-0.4698589 1.152235,-0.4673154 2.220255,-0.3590833 0.498837,0.048281 0.925326,0.1144522 0.949308,0.140511 0.02718,0.030215 -0.0031,0.06722 -0.07183,0.096796 -0.06555,0.030375 -0.751576,0.3235071 -1.527011,0.6557172 -0.775754,0.3320502 -1.493142,0.6633611 -1.592589,0.7369014 -0.233905,0.1728196 -0.345024,0.4198336 -0.346622,0.7587586 -0.0013,0.214066 0.07315,0.452168 0.349745,1.2085131 0.19282,0.527252 0.349744,1.007453 0.349744,1.067883 0,0.244282 -0.161315,0.12418 -1.04611,0.974209 -0.50827,0.488563 -0.959228,0.958097 -1.002396,1.046025 -0.04316,0.08761 -0.06604,0.223499 -0.05309,0.299757 0.02238,0.129974 0.628902,0.801077 1.249089,1.380128 0.260451,0.243003 1.839609,1.372835 2.092225,1.417599 0.211047,0.03677 0.436332,-0.321214 0.805662,-0.67133 0.362936,-0.34372 0.580502,-0.687531 0.727596,-1.155311 0.137509,-0.437725 0.104783,-0.732754 -0.168618,-1.442578 C 16.8014,12.962979 16.74688,12.66491 16.81563,12.461875 16.83162,12.413435 17.396331,11.8044 18.067841,11.106727 19.532374,9.5870019 19.880271,9.3173599 19.960213,9.0459009 20.049743,8.7447052 19.986793,8.346149 19.78534,7.9467934 19.307289,6.9914095 17.322362,3.9999997 17.152884,3.9999997 16.283119,4.1590705 15.555705,4.8385311 14.639093,4.9999999 13.94976,4.3026058 12.967628,4.157413 11.997269,3.9999997 10.799609,4.2082309 10.302353,4.2340601 9.3523224,4.9999999 8.4496212,4.8506812 7.7792948,4.1218208 6.8447761,3.9999997 Z M 12.003513,15.581217 c -0.217382,-9.99e-4 -0.434358,0.08788 -0.821274,0.268532 -0.693735,0.322938 -2.254816,1.201899 -2.3857609,1.345782 -0.1352613,0.148679 -0.066076,0.288882 0.2747999,0.552676 0.7023674,0.543558 2.048506,1.58621 2.048506,1.58621 0.915492,0.890469 0.844238,0.892675 1.783074,-0.02498 0,0 0.980976,-0.740449 1.854899,-1.455068 0.492185,-0.401274 0.570208,-0.500943 0.490266,-0.643228 -0.06443,-0.113508 -1.652254,-1.006632 -2.410741,-1.355148 -0.39883,-0.183044 -0.616388,-0.273778 -0.833769,-0.274776 z"/>
</svg>
