<svg xmlns="http://www.w3.org/2000/svg" width="24" height="24" version="1.1">
 <defs>
  <style id="current-color-scheme" type="text/css">
   .ColorScheme-Text { color:#c7d6d0; } .ColorScheme-Highlight { color:#4285f4; } .ColorScheme-NeutralText { color:#ff9800; } .ColorScheme-PositiveText { color:#4caf50; } .ColorScheme-NegativeText { color:#f44336; }
  </style>
 </defs>
 <g transform="matrix(1,0,0,1,1,1)">
  <path style="fill:currentColor" class="ColorScheme-Text" d="M 4,4 C 3.446,4 3,4.446 3,5 V 15 C 3,15.554 3.446,16 4,16 H 9 C 8.446,16 8,16.446 8,17 V 18 H 14 V 17 C 14,16.446 13.554,16 13,16 H 18 C 18.554,16 19,15.554 19,15 V 5 C 19,4.446 18.554,4 18,4 Z M 5,6 H 17 V 14 H 5 Z"/>
 </g>
</svg>
