<svg xmlns="http://www.w3.org/2000/svg" width="24" height="24" version="1.1">
 <defs>
  <style id="current-color-scheme" type="text/css">
   .ColorScheme-Text { color:#c7d6d0; } .ColorScheme-Highlight { color:#4285f4; } .ColorScheme-NeutralText { color:#ff9800; } .ColorScheme-PositiveText { color:#4caf50; } .ColorScheme-NegativeText { color:#f44336; }
  </style>
 </defs>
 <path style="fill:currentColor" class="ColorScheme-Text" d="m 13.128953,4.0046394 c -0.37378,0.021527 -0.74507,0.1224284 -1.101562,0.3027344 -0.11431,0.057816 -0.269559,0.1466017 -0.345703,0.1972656 C 10.923186,5.0093593 10.269252,5.7290126 9.8164537,6.778077 9.7053238,7.0355448 9.5537569,7.4392896 9.5371569,7.5222176 9.5222369,7.5967936 9.4907162,7.5935457 9.4023913,7.5085457 9.0570562,7.1761937 8.6312051,7.0022907 8.2129381,7.0241707 7.7935861,7.0461227 7.4322225,7.2234033 7.0781725,7.5808113 6.8017945,7.8598113 6.600655,8.1648029 6.429735,8.559327 6.207078,9.0732792 6.099707,9.5354372 6.03911,10.242921 l -0.00977,0.103515 -0.1503907,0.101563 c -0.8457099,0.568427 -1.5034626,1.952187 -1.7597656,3.367187 -0.343815,1.898152 0.0713,3.870247 1.0507813,5.115235 0.113562,0.144342 0.3899321,0.428533 0.5175781,0.53125 0.375901,0.302471 0.7605405,0.470852 1.2109375,0.529296 h 0.00195 c 0.02579,0.0033 2.3749838,0.0066 5.2207034,0.0078 5.673089,0.0026 5.287733,0.0096 5.591797,-0.08594 0.530578,-0.166796 1.059751,-0.616954 1.443359,-1.226562 0.655008,-1.040904 0.952947,-2.480377 0.808594,-3.917969 -0.19325,-1.924572 -1.101944,-3.487231 -1.824219,-3.759766 l -0.125,-0.03516 -0.0039,-0.130859 C 17.982056,9.7346692 17.923299,9.1793342 17.752,8.4128426 17.284103,6.3192304 15.616219,4.6907887 14.250047,4.1804207 13.879484,4.0419847 13.502734,3.9831129 13.128953,4.0046394 Z m -2.414062,4.9980468 c 0.783829,-0.00931 1.549727,0.03957 2.162109,0.150391 0.431986,0.07817 0.807852,0.179827 1.183594,0.322265 0.865657,0.328157 1.567236,0.8739748 1.837891,1.5878908 0.180911,0.477224 0.09518,1.869557 -0.05078,2.460938 -0.127289,0.515691 -0.460495,1.134251 -0.880859,1.507812 l 1.54492,2.96875 H 15.611375 14.888719 13.97075 l -0.873047,-2.111328 c -0.369085,0.04972 -0.739542,0.0849 -1.177734,0.130859 -0.343857,0.02684 -1.004195,0.02362 -1.458984,-0.0059 -0.200765,-0.01301 -0.342223,-0.02775 -0.359375,-0.03125 -0.01715,-0.0035 -0.03798,0.0018 -0.04687,0.01172 -0.01141,0.0126 -0.0052,-0.577929 -0.0078,0.06836 l -0.0039,1.917969 -1.3457032,0.002 -0.6972643,0.0039 0.00391,-4.84375 0.00391,-3.8437498 0.054687,-0.01758 c 0.03089,-0.0093 0.2029544,-0.04344 0.3808594,-0.07617 0.685973,-0.126237 1.4876553,-0.193815 2.2714841,-0.203125 z"/>
 <path style="fill:currentColor" class="ColorScheme-Highlight" d="m 11.550582,11.001309 c -0.446585,-0.0012 -0.969238,0.03923 -1.359375,0.109375 -0.07654,0.01377 -0.144097,0.02539 -0.148437,0.02539 -0.0043,0 -0.01536,0.0067 -0.02539,0.01563 -0.01629,0.01462 -0.01774,0.152504 -0.01758,1.373046 8.9e-5,0.764103 0.004,1.364947 0.0098,1.373047 0.01743,0.02457 0.347181,0.0724 0.65039,0.09375 0.29238,0.02059 1.09459,0.0075 1.38086,-0.02148 0.404483,-0.04094 0.790619,-0.131114 1.074214,-0.251953 0.340238,-0.144972 0.581902,-0.351208 0.730469,-0.621094 0.09849,-0.178921 0.139429,-0.326542 0.152344,-0.564453 0.02162,-0.398119 -0.112645,-0.72903 -0.400391,-0.984375 -0.342728,-0.304142 -0.848209,-0.468177 -1.632812,-0.53125 -0.124093,-0.01 -0.265201,-0.01522 -0.414063,-0.01563 z"/>
</svg>
