<svg xmlns="http://www.w3.org/2000/svg" width="24" height="24" version="1.1">
 <defs>
  <style id="current-color-scheme" type="text/css">
   .ColorScheme-Text { color:#c7d6d0; } .ColorScheme-Highlight { color:#4285f4; } .ColorScheme-NeutralText { color:#ff9800; } .ColorScheme-PositiveText { color:#4caf50; } .ColorScheme-NegativeText { color:#f44336; }
  </style>
 </defs>
 <path style="opacity:0.3;fill:currentColor" class="ColorScheme-Text" d="m 7.024577,5.0001494 v 0.00195 c -2.4887083,0 -4.3594234,2.0010688 -4.4902344,4.480469 L 2.0362958,17.943508 c -0.3150265,1.85 1.482515,3.017141 2.9941406,0.994141 0.9425788,-1.279 2.96875,-3.9375 2.96875,-3.9375 l 7.9999996,0.04102 2.988281,4.021484 c 1.499025,2.012 3.18661,0.357874 2.996094,-1.003906 L 21.487467,9.5841334 c 7.84e-4,-0.03462 0.0098,-0.06674 0.0098,-0.101562 -6.4e-5,-2.4824001 -2.00196,-4.482422 -4.490269,-4.482422 z m 1.9746094,1 h 1.4140626 c 0.265199,5.1e-5 0.519519,0.1054325 0.707031,0.2929688 l 0.878906,0.8789062 0.878906,-0.8789062 c 0.187512,-0.1875366 0.441832,-0.2929179 0.707032,-0.2929688 h 1.414062 c 0.552262,5.52e-5 0.999945,0.4477381 1,1 v 1.4140625 c -5.1e-5,0.265199 -0.105433,0.5195195 -0.292969,0.7070315 l -0.878906,0.8789056 0.878906,0.878906 c 0.187536,0.187512 0.292918,0.441832 0.292969,0.707032 v 1.414062 c -5.5e-5,0.552262 -0.447738,0.999945 -1,1 h -1.414062 c -0.2652,-5.1e-5 -0.51952,-0.105432 -0.707032,-0.292969 L 11.999186,12.828274 11.12028,13.70718 c -0.187511,0.187536 -0.441832,0.292918 -0.707031,0.292969 H 8.9991864 c -0.5522619,-5.5e-5 -0.9999448,-0.447738 -1,-1 v -1.414062 c 5.09e-5,-0.2652 0.1054324,-0.51952 0.2929688,-0.707032 L 9.1710614,10.000149 8.2921552,9.1212434 C 8.1046189,8.9337315 7.9992374,8.6794109 7.9991864,8.4142119 V 7.0001494 c -0.2385341,-0.5522619 0.071688,-0.9999448 1,-1 z"/>
 <path style="fill:currentColor" class="ColorScheme-NegativeText" d="m 8.9991864,7.0001494 v 1.4140625 l 1.5859376,1.5859371 -1.5859376,1.585938 v 1.414062 h 1.4140626 l 1.585937,-1.585938 1.585938,1.585938 h 1.414062 V 11.586087 L 13.413248,10.000149 14.999186,8.4142119 V 7.0001494 H 13.585124 L 11.999186,8.5860869 10.413249,7.0001494 Z"/>
</svg>
