<svg xmlns="http://www.w3.org/2000/svg" width="24" height="24" version="1.1">
 <defs>
  <style id="current-color-scheme" type="text/css">
   .ColorScheme-Text { color:#c7d6d0; } .ColorScheme-Highlight { color:#4285f4; } .ColorScheme-NeutralText { color:#ff9800; } .ColorScheme-PositiveText { color:#4caf50; } .ColorScheme-NegativeText { color:#f44336; }
  </style>
 </defs>
 <path style="fill:currentColor" class="ColorScheme-Text" d="M 6.4453125,4.00036 A 1.4120914,1.4364486 0 0 0 5,5.4359069 V 18.564813 a 1.4120914,1.4364486 0 0 0 2.1171875,1.244141 L 18.292969,13.244501 a 1.4120914,1.4364486 0 0 0 0,-2.488282 L 7.1171875,4.1937194 A 1.4120914,1.4364486 0 0 0 6.4453125,4.00036 Z M 8,8.1917662 14.486328,12.002313 8,15.81286 Z M 18.509766,15.002313 A 3.5,3.5 0 0 0 16.75,15.46911 3.5,3.5 0 0 0 15.251953,19.797235 l 1.775391,-1.023437 A 1.5,1.5 0 0 1 17.75,17.201532 1.5,1.5 0 0 1 18.226562,17.027704 l 0.457032,0.789062 0.789062,-0.455078 1.773438,-1.023437 a 3.5,3.5 0 0 0 -2.736328,-1.335938 z m 3.238281,2.201172 -1.775391,1.023437 A 1.5,1.5 0 0 1 19.25,19.799188 1.5,1.5 0 0 1 18.773438,19.973016 l -0.457032,-0.789062 -0.789062,0.455078 -0.94336,0.544922 -0.830078,0.478515 A 3.5,3.5 0 0 0 20.25,21.53161 3.5,3.5 0 0 0 21.748047,17.203485 Z"/>
</svg>
