<svg xmlns="http://www.w3.org/2000/svg" width="24" height="24" version="1.1">
 <defs>
  <style id="current-color-scheme" type="text/css">
   .ColorScheme-Text { color:#c7d6d0; } .ColorScheme-Highlight { color:#4285f4; } .ColorScheme-NeutralText { color:#ff9800; } .ColorScheme-PositiveText { color:#4caf50; } .ColorScheme-NegativeText { color:#f44336; }
  </style>
 </defs>
 <path style="opacity:0.3;fill:currentColor" class="ColorScheme-Text" d="M 6.0234375,4 C 5.4566955,4 5,4.4566955 5,5.0234375 V 17.976562 C 5,18.543305 5.4566955,19 6.0234375,19 H 18.976562 C 19.543305,19 20,18.543305 20,17.976562 V 5.0234375 C 20,4.4566955 19.543305,4 18.976562,4 Z M 8,7 h 9 v 3 h -3 v 6 H 11 V 10 H 8 Z"/>
</svg>
