/* XPM */
static char * title_1_active_xpm[] = {
"2 26 3 1",
" 	c None",
".	c #66A5AD",
"+	c #0f191f",
"..",
"++",
"++",
"++",
"++",
"++",
"++",
"++",
"++",
"++",
"++",
"++",
"++",
"++",
"++",
"++",
"++",
"++",
"++",
"++",
"++",
"++",
"++",
"++",
"++",
"++"};
