<svg xmlns="http://www.w3.org/2000/svg" width="22" height="22" version="1.1">
 <defs>
  <style id="current-color-scheme" type="text/css">
   .ColorScheme-Text { color:#c7d6d0; } .ColorScheme-Highlight { color:#4285f4; } .ColorScheme-NeutralText { color:#ff9800; } .ColorScheme-PositiveText { color:#4caf50; } .ColorScheme-NegativeText { color:#f44336; }
  </style>
 </defs>
 <path style="fill:currentColor" class="ColorScheme-Text" d="M 7.5,2.9999999 A 3.5,3.5 0 0 0 4,6.4999999 3.5,3.5 0 0 0 4.234375,7.7558593 C 5.486475,5.7692593 7.581625,4.3678061 10.015625,4.0664061 A 3.5,3.5 0 0 0 7.5,2.9999999 Z M 14.5,2.9999999 A 3.5,3.5 0 0 0 11.988282,4.0664061 C 14.419981,4.3687062 16.511672,5.7696062 17.763672,7.7539061 A 3.5,3.5 0 0 0 18,6.4999999 3.5,3.5 0 0 0 14.5,2.9999999 Z M 11,4.9999999 A 7,7 0 0 0 4,12 7,7 0 0 0 5.646485,16.509766 7,7 0 0 0 6.107422,17.005859 1,1 0 0 0 5.292969,17.292969 1,1 0 0 0 5.292969,18.707031 1,1 0 0 0 6.707032,18.707031 1,1 0 0 0 6.953125,17.701172 7,7 0 0 0 7.542969,18.076172 7,7 0 0 0 8.138672,18.378906 7,7 0 0 0 8.195313,18.404297 7,7 0 0 0 8.732422,18.613281 7,7 0 0 0 8.902344,18.669922 7,7 0 0 0 9.390625,18.804688 7,7 0 0 0 9.583985,18.847656 7,7 0 0 0 10.06836,18.929688 7,7 0 0 0 10.292969,18.957031 7,7 0 0 0 10.814454,18.994141 7,7 0 0 0 11,19 7,7 0 0 0 11.699219,18.964844 7,7 0 0 0 15.023438,17.722656 7,7 0 0 0 15.044922,17.708984 1,1 0 0 0 15.292969,18.707031 1,1 0 0 0 16.707031,18.707031 1,1 0 0 0 16.707031,17.292969 1,1 0 0 0 15.880859,17.007812 7,7 0 0 0 16.326172,16.529297 7,7 0 0 0 16.357422,16.496094 7,7 0 0 0 16.369141,16.480469 7,7 0 0 0 16.738281,15.994141 7,7 0 0 0 16.796875,15.914062 7,7 0 0 0 17.091797,15.431641 7,7 0 0 0 17.164062,15.304688 7,7 0 0 0 17.400391,14.8125 7,7 0 0 0 17.464844,14.669922 7,7 0 0 0 17.632812,14.207031 7,7 0 0 0 17.705078,13.988281 7,7 0 0 0 17.818359,13.546875 7,7 0 0 0 17.871094,13.3125 7,7 0 0 0 17.9375,12.863281 7,7 0 0 0 17.96875,12.609375 7,7 0 0 0 18,12 7,7 0 0 0 11,4.9999999 Z M 11,6.9999999 A 5,5 0 0 1 16,12 5,5 0 0 1 11,17 5,5 0 0 1 6,12 5,5 0 0 1 6.025391,11.5 5,5 0 0 1 11,6.9999999 Z M 12.929688,9.9980468 A 0.50005,0.50005 0 0 0 12.699219,10.070312 L 10.25,11.484375 A 0.50005,0.50005 0 0 0 10.066407,12.166015 L 11.833985,15.228516 A 0.50005,0.50005 0 0 0 12.757813,15.099609 0.50005,0.50005 0 0 0 12.701172,14.728516 L 11.183594,12.099609 13.199219,10.935547 A 0.50005,0.50005 0 0 0 12.929688,9.9980468 Z"/>
</svg>
