<svg xmlns="http://www.w3.org/2000/svg" width="22" height="22" version="1.1">
 <defs>
  <style id="current-color-scheme" type="text/css">
   .ColorScheme-Text { color:#c7d6d0; } .ColorScheme-Highlight { color:#4285f4; } .ColorScheme-NeutralText { color:#ff9800; } .ColorScheme-PositiveText { color:#4caf50; } .ColorScheme-NegativeText { color:#f44336; }
  </style>
 </defs>
 <path style="fill:currentColor" class="ColorScheme-Text" d="m 11,4 4,4 h 3 v 6 h -3 l -4,4 z"/>
 <path style="opacity:0.3;fill:currentColor" class="ColorScheme-Text" d="M 9,4 V 5.5 C 6.68,6.24 5,8.43 5,11 c 0,2.57 1.68,4.76 4,5.5 V 18 C 5.85,17.22 3.5,14.4 3.5,11 3.5,7.6 5.85,4.78 9,4 Z m 0,4 v 6 C 7.94,13.42 7.211,12.3 7.211,11 7.211,9.7 7.93,8.58 9,8 Z"/>
</svg>
