<svg xmlns="http://www.w3.org/2000/svg" width="22" height="22" version="1.1">
 <defs>
  <style id="current-color-scheme" type="text/css">
   .ColorScheme-Text { color:#c7d6d0; } .ColorScheme-Highlight { color:#4285f4; } .ColorScheme-NeutralText { color:#ff9800; } .ColorScheme-PositiveText { color:#4caf50; } .ColorScheme-NegativeText { color:#f44336; }
  </style>
 </defs>
 <path style="fill:currentColor" class="ColorScheme-Text" d="M 11 3 C 8.244762 3 6 5.3005656 6 8.1347656 C 6 9.5800456 6.5191375 10.419701 7.0234375 10.994141 C 7.2755879 11.281381 7.522119 11.507297 7.6933594 11.710938 C 7.864599 11.914657 8 13.078871 8 13.275391 C 8 14.999719 9 15.999719 11 15.998047 C 13 15.999719 14 14.999719 14 13.275391 C 14 13.053911 14.249776 11.899617 14.408203 11.710938 C 14.566627 11.522297 14.796772 11.317875 15.035156 11.046875 C 15.511925 10.504795 16 9.6795656 16 8.1347656 C 16 5.3005656 13.755238 3 11 3 z M 11 5 C 12.641933 5 14 6.3566012 14 8.1347656 C 14 9.2583029 13.792233 9.4320489 13.533203 9.7265625 C 13.387016 9.8927516 13.191223 10.049618 12.876953 10.423828 L 12.876953 10.425781 C 12.35784 11.044023 12.451259 11.158075 12.378906 11.376953 C 12.306556 11.595831 12.251357 11.80236 12.201172 12.009766 C 12.150992 12.217172 12.108342 12.417905 12.074219 12.605469 C 12.040099 12.792986 12 12.844101 12 13.275391 C 12 13.750931 11.91765 13.791525 11.886719 13.820312 C 11.855789 13.849104 11.668341 13.998604 11.001953 13.998047 L 11 13.998047 L 10.998047 13.998047 C 10.331706 13.998604 10.144214 13.849101 10.113281 13.820312 C 10.082348 13.791526 10 13.750931 10 13.275391 C 10 12.717802 9.9529655 12.596857 9.8847656 12.175781 C 9.8506657 11.965243 9.8107844 11.748173 9.7480469 11.507812 C 9.7334 11.451698 9.7201021 11.386086 9.7128906 11.330078 L 10.179688 12.863281 C 10.214537 12.972442 10.319274 13.044173 10.423828 13.007812 C 10.52838 12.971413 10.59735 12.863026 10.5625 12.753906 L 9.3847656 8.8808594 C 9.6416836 9.034593 9.9941898 9.2115923 10.421875 9.3125 C 11.078334 9.467352 11.881693 9.4170494 12.578125 8.9667969 L 11.439453 12.710938 C 11.404602 12.820096 11.473572 12.928444 11.578125 12.964844 C 11.682678 13.001244 11.787416 12.929434 11.822266 12.820312 L 13.111328 8.5800781 C 13.123888 8.540736 13.110949 8.504679 13.099609 8.46875 C 13.102528 8.445793 13.108316 8.4238006 13.103516 8.4003906 C 13.087856 8.3240306 13.031464 8.2633806 12.958984 8.2441406 C 12.886499 8.2249406 12.810379 8.2491537 12.761719 8.3085938 C 12.109629 8.9727138 11.243073 9.0938422 10.505859 8.9199219 C 9.7686463 8.7460019 9.1992185 8.2773438 9.1992188 8.2773438 C 9.15929 8.2497407 9.1120331 8.2373406 9.0644531 8.2441406 C 8.9822418 8.2589406 8.9164357 8.3262694 8.9023438 8.4121094 C 8.8993198 8.4305174 8.9084663 8.4468697 8.9101562 8.4648438 C 8.8818753 8.5112324 8.872594 8.568526 8.890625 8.625 L 9.6152344 11.003906 C 9.5490475 10.859812 9.4456752 10.686825 9.2246094 10.423828 C 8.9137575 10.054161 8.6961093 9.8660795 8.5273438 9.6738281 C 8.2115667 9.3141318 8 9.1011188 8 8.1347656 C 8 6.3566012 9.3580672 5 11 5 z M 12.695312 16.734375 C 12.181562 16.911185 11.61175 16.998558 11 16.998047 C 10.401251 16.998547 9.8412757 16.917167 9.3359375 16.748047 C 9.1267039 16.95268 8.9879415 17.163981 9.0019531 17.359375 C 9.0169051 17.567904 9.1874924 17.715681 9.4453125 17.808594 C 11.106928 17.992252 12.141475 17.224481 12.695312 16.734375 z M 12.75 16.878906 C 12.70003 16.951556 12.64026 17.02464 12.548828 17.09375 C 11.639751 17.781375 10.519973 17.981972 9.4511719 17.8125 C 9.5846198 17.85973 9.7337527 17.895323 9.9121094 17.908203 C 9.9357738 17.914282 9.974692 17.9163 10 17.921875 L 10 18.09375 C 10 18.573745 10.470589 19 11 19 C 11.529412 19 12 18.573745 12 18.09375 L 12 17.912109 C 12.584664 17.810949 12.95629 17.625027 12.996094 17.361328 C 13.022134 17.188763 12.926464 17.023717 12.75 16.878906 z"/>
</svg>
