<svg xmlns="http://www.w3.org/2000/svg" width="22" height="22" version="1.1">
 <defs>
  <style id="current-color-scheme" type="text/css">
   .ColorScheme-Text { color:#c7d6d0; } .ColorScheme-Highlight { color:#4285f4; } .ColorScheme-NeutralText { color:#ff9800; } .ColorScheme-PositiveText { color:#4caf50; } .ColorScheme-NegativeText { color:#f44336; }
  </style>
 </defs>
 <path style="fill:currentColor;opacity:0.3" class="ColorScheme-Text" d="M 10.417969 4 C 9.8139692 3.99763 9.2273405 4.077868 8.6796875 4.2402344 C 7.8470985 4.5693368 7.1633093 4.8725415 7.9414062 5.2832031 C 9.4168452 6.0540561 10.806699 7.1054805 12.009766 8.4375 C 12.944555 9.472485 13.702774 10.608505 14.300781 11.791016 A 5 5 0 0 1 17 11 A 5 5 0 0 1 17.931641 11.089844 C 17.752962 9.519026 17.111343 7.8511427 15.894531 6.5039062 C 14.38639 4.8341133 12.319919 4.0074625 10.417969 4 z M 17.824219 4.0058594 C 17.620025 3.9870004 17.396821 4.0195289 17.166016 4.0761719 C 16.668105 4.2175657 16.187647 4.5835549 15.720703 4.9726562 C 16.039383 5.2368014 16.349707 5.5162096 16.636719 5.8339844 C 16.747621 5.9567746 16.846588 6.0858856 16.949219 6.2128906 C 17.068715 6.1558726 17.198394 6.1036615 17.353516 6.0683594 C 17.711845 5.9868114 18.320972 6.2183781 18.603516 6.3203125 C 18.979465 6.3267525 19.052863 5.7607567 18.96875 5.3613281 C 18.87035 4.8940897 18.563455 4.5620597 18.371094 4.2480469 C 18.213961 4.0956665 18.028413 4.0247173 17.824219 4.0058594 z M 7.25 6.0234375 C 7.20622 6.0555035 7.1629656 6.0819874 7.1191406 6.1152344 C 3.8086246 8.6269644 1.955267 14.178416 3.625 16.144531 C 5.2412669 18.047691 9.1199446 18.492001 12.214844 17.4375 A 5 5 0 0 1 12 16 A 5 5 0 0 1 13.5 12.429688 C 12.926557 11.255593 12.188305 10.126837 11.267578 9.1074219 C 10.146149 7.8657924 8.8521476 6.8875848 7.4785156 6.1699219 L 7.4765625 6.1699219 L 7.4746094 6.1679688 C 7.4006194 6.1289188 7.325889 6.0698288 7.25 6.0234375 z"/>
 <path style="fill:currentColor" class="ColorScheme-Text" d="m 17.278535,12.009931 c -0.768442,-0.05431 -1.561701,0.113093 -2.279029,0.52722 -1.912976,1.10434 -2.56709,3.550808 -1.46272,5.463557 1.104371,1.912649 3.549375,2.566886 5.462251,1.462546 1.912976,-1.104339 2.569043,-3.548854 1.464672,-5.461604 -0.690232,-1.195406 -1.904435,-1.901203 -3.185174,-1.991719 z m -2.279029,1.991719 h 0.999882 v 3.999058 h -0.999882 z m 2.999648,0 h 0.999883 v 3.999058 h -0.999883 z"/>
</svg>
