<svg xmlns="http://www.w3.org/2000/svg" width="22" height="22" version="1.1">
 <defs>
  <style id="current-color-scheme" type="text/css">
   .ColorScheme-Text { color:#c7d6d0; } .ColorScheme-Highlight { color:#4285f4; } .ColorScheme-NeutralText { color:#ff9800; } .ColorScheme-PositiveText { color:#4caf50; } .ColorScheme-NegativeText { color:#f44336; }
  </style>
 </defs>
 <g transform="translate(0 -1030.4)">
  <path style="fill:currentColor" class="ColorScheme-Text" d="m5 1033.4c-1.108 0-2 0.892-2 2v12c0 1.108 0.892 2 2 2h12c1.108 0 2-0.892 2-2v-12c0-1.108-0.892-2-2-2h-12zm3.8652 2.3047 1.5859 2.748a3 3 0 0 1 0.549 0 3 3 0 0 1 0.54688 0.053l1.5879-2.748 1.7305 1-1.5859 2.75a3 3 0 0 1 0.54688 0.9453h3.1738v2h-3.1758a3 3 0 0 1 -0.54297 0.9492l1.584 2.7461-1.7305 1-1.5859-2.748a3 3 0 0 1 -0.55 0.1 3 3 0 0 1 -0.54688 -0.053l-1.5879 2.748-1.7305-1 1.5859-2.75a3 3 0 0 1 -0.54688 -0.9453h-3.1738v-2h3.1758a3 3 0 0 1 0.5432 -1l-1.584-2.7461 1.7305-1zm2.1348 3.7a2 2 0 0 0 -2 2 2 2 0 0 0 2 2 2 2 0 0 0 2 -2 2 2 0 0 0 -2 -2z"/>
 </g>
</svg>
