<svg xmlns="http://www.w3.org/2000/svg" width="22" height="22" version="1.1">
 <defs>
  <style id="current-color-scheme" type="text/css">
   .ColorScheme-Text { color:#c7d6d0; } .ColorScheme-Highlight { color:#4285f4; } .ColorScheme-NeutralText { color:#ff9800; } .ColorScheme-PositiveText { color:#4caf50; } .ColorScheme-NegativeText { color:#f44336; }
  </style>
 </defs>
 <path style="fill:currentColor" class="ColorScheme-Text" d="M 11,2.9999999 A 8,8 0 0 0 3,11 8,8 0 0 0 11,19 8,8 0 0 0 19,11 8,8 0 0 0 11,2.9999999 Z M 7.476562,6.0195311 C 7.80854,6.0037231 8.1177,6.0996371 8.410156,6.2656249 8.979261,6.5817949 9.540087,6.9206171 10.125,7.1972655 10.599254,7.4264883 10.584481,7.6391837 10.20508,7.9316405 9.612262,8.3900861 8.980456,8.4786457 8.308596,8.1308593 7.668353,7.7988817 7.050401,7.4197766 6.410158,7.095703 6.030755,6.9060014 6.078914,6.7312673 6.347658,6.4941405 6.671731,6.2016837 7.041832,6.0274353 7.476564,6.0195311 Z m 7.15625,0.3183594 c 0.342847,0.025688 0.666665,0.1613119 0.947266,0.3984375 0.28455,0.2450308 0.385722,0.4270272 -0.0332,0.65625 -1.1145,0.6244336 -2.21177,1.2875832 -3.318363,1.919922 C 11.691027,9.6286716 11.121839,9.6460642 10.552734,9.345703 10.347225,9.1876186 10.02335,9.0680307 10.03125,8.7597655 10.03915,8.5068303 10.363033,8.4680813 10.552734,8.3574218 11.548667,7.7646049 12.552712,7.1706675 13.564453,6.6015623 13.928048,6.3960519 14.289968,6.3122024 14.632812,6.3378905 Z m 2.560547,2.3339845 c 0.125519,0.01235 0.18685,0.1448806 0.22461,0.3671875 0.07552,0.4268287 0.03789,0.8314424 -0.166016,1.2187495 -0.151042,0.284553 -0.376823,0.498074 -0.65625,0.664063 -0.54375,0.324074 -1.088281,0.630546 -1.609375,0.99414 -0.422916,0.292457 -0.587765,0.167614 -0.640625,-0.30664 -0.08307,-0.742998 0.150001,-1.337302 0.761719,-1.7246095 0.589063,-0.3794032 1.201693,-0.7103485 1.783203,-1.0976562 0.130274,-0.085956 0.227414,-0.1226444 0.302734,-0.1152343 z M 5.259765,8.8125 c 0.08276,-0.015654 0.19642,0.015535 0.353516,0.1074219 1.106593,0.6402428 2.235113,1.2328951 3.349609,1.8652341 0.545392,0.308265 0.845338,0.783494 0.876954,1.431641 -0.03162,0.26084 0.03232,0.599819 -0.228516,0.75 C 9.39001,13.093264 9.191746,12.833315 8.99414,12.722656 7.974494,12.16936 6.94915,11.616072 5.945312,11.039062 5.218123,10.620138 4.900876,9.9557051 5.027344,9.2285155 5.066864,8.9963291 5.121824,8.8385879 5.259765,8.8125 Z M 13.597656,11 c 0.07608,-0.0013 0.15287,0.01292 0.228516,0.05078 0.247582,0.127536 0.100175,0.438921 0.109375,0.662109 0.03668,1.171738 0.06445,2.343889 0.06445,3.515626 -0.0092,0.836956 -0.495203,1.434222 -1.292969,1.697265 -0.403467,0.127536 -0.650391,0.13467 -0.650391,-0.351562 0.0092,-1.291303 -0.04747,-2.581904 -0.05664,-3.865235 -0.0092,-0.629711 0.304789,-1.131697 0.9375,-1.482422 0.206319,-0.07772 0.431916,-0.222802 0.660156,-0.226562 z m -5.234375,2.003906 c 0.09099,0.0087 0.198596,0.03498 0.324219,0.07813 0.780655,0.270126 1.228942,0.750368 1.255859,1.470703 0.02692,0.682818 0.0098,1.373823 0.05469,2.056641 0.02692,0.405191 -0.170798,0.450443 -0.55664,0.337891 C 8.974811,16.812203 8.598112,16.594543 8.337893,16.234375 8.131513,15.964249 8.048831,15.670306 8.048831,15.347656 c 0,-0.615288 0.01087,-1.238228 -0.04297,-1.853515 -0.03365,-0.377051 0.08444,-0.516263 0.357422,-0.490235 z"/>
</svg>
