<svg xmlns="http://www.w3.org/2000/svg" width="22" height="22" version="1.1">
 <defs>
  <style id="current-color-scheme" type="text/css">
   .ColorScheme-Text { color:#c7d6d0; } .ColorScheme-Highlight { color:#4285f4; } .ColorScheme-NeutralText { color:#ff9800; } .ColorScheme-PositiveText { color:#4caf50; } .ColorScheme-NegativeText { color:#f44336; }
  </style>
 </defs>
 <path style="fill:currentColor" class="ColorScheme-Text" d="M 11 3 A 8 8 0 0 0 3 11 A 8 8 0 0 0 11 19 A 8 8 0 0 0 13.019531 18.730469 L 13.019531 17 L 13.019531 14 A 0.98104172 1.0195284 0 0 1 14.023438 12.980469 A 0.98104172 1.0195284 0 0 1 14.490234 13.117188 L 16.990234 14.615234 L 17.84375 15.128906 A 8 8 0 0 0 19 11 A 8 8 0 0 0 11 3 z M 9 7.4707031 L 12 9.234375 L 15 11 L 12 12.765625 L 9 14.529297 L 9 11 L 9 7.4707031 z M 14 14 L 14 17 L 14 20 L 16.5 18.5 L 19 17 L 16.5 15.5 L 14 14 z"/>
</svg>
