<svg xmlns="http://www.w3.org/2000/svg" width="24" height="24" version="1.1" viewBox="0 0 24 24">
 <defs>
  <radialGradient id="radialGradient4475" cx="8" cy="8" r="7" fx="8" fy="8" gradientUnits="userSpaceOnUse">
   <stop style="stop-color:#c7d6d0;stop-opacity:0" offset="0" stop-opacity=".2"/>
   <stop style="stop-color:#c7d6d0" offset="1"/>
  </radialGradient>
 </defs>
 <path style="fill:url(#radialGradient4475)" d="M 1 1 L 1 15 L 15 15 L 15 1 L 1 1 z" transform="translate(4 4)"/>
</svg>
