<svg xmlns="http://www.w3.org/2000/svg" width="24" height="24" viewBox="0 0 24 24">
 <defs>
  <style id="current-color-scheme" type="text/css">
   .ColorScheme-Text { color:#c7d6d0; } .ColorScheme-Highlight { color:#4285f4; } .ColorScheme-NeutralText { color:#ff9800; } .ColorScheme-PositiveText { color:#4caf50; } .ColorScheme-NegativeText { color:#f44336; }
  </style>
 </defs>
 <path style="fill:currentColor" class="ColorScheme-Text" d="M 8 1 A 5 5 0 0 0 3 6 A 5 5 0 0 0 3 6.0078125 A 5 5 0 0 0 1 10 A 5 5 0 0 0 6 15 A 5 5 0 0 0 7.9960938 14.578125 A 5 5 0 0 0 10 15 A 5 5 0 0 0 15 10 A 5 5 0 0 0 13 6.0078125 A 5 5 0 0 0 13 6 A 5 5 0 0 0 8 1 z" transform="translate(4 4)"/>
</svg>
