<svg xmlns="http://www.w3.org/2000/svg" width="24" height="24" viewBox="0 0 24 24">
 <defs>
  <style id="current-color-scheme" type="text/css">
   .ColorScheme-Text { color:#c7d6d0; } .ColorScheme-Highlight { color:#4285f4; } .ColorScheme-NeutralText { color:#ff9800; } .ColorScheme-PositiveText { color:#4caf50; } .ColorScheme-NegativeText { color:#f44336; }
  </style>
 </defs>
 <path style="fill:currentColor" class="ColorScheme-Text" d="M 3.890625 2 A 1.0001 1.0001 0 0 0 2.9296875 2.7226562 L 0.04296875 12.722656 A 1.0001 1.0001 0 0 0 1.0039062 14 L 2.1699219 14 A 1.0001 1.0001 0 0 0 3.1328125 13.267578 L 3.7636719 11 L 5.2441406 11 L 5.875 13.267578 A 1.0001 1.0001 0 0 0 6.8378906 14 L 8.0039062 14 A 1.0001 1.0001 0 0 0 8.5039062 13.865234 A 1.0001 1.0001 0 0 0 9.0039062 14 L 10.003906 14 A 1.0001 1.0001 0 0 0 10.664062 13.751953 C 11.091273 13.904803 11.540823 13.99937 12.001953 14 A 1.0001 1.0001 0 0 0 12.003906 14 C 14.201206 14 16.003906 12.1973 16.003906 10 C 16.003906 7.8027 14.201206 6 12.003906 6 A 1.0001 1.0001 0 0 0 12.001953 6 C 11.657933 6.00047 11.331716 6.0992969 11.003906 6.1855469 L 11.003906 3 A 1.0001 1.0001 0 0 0 10.003906 2 L 9.0039062 2 A 1.0001 1.0001 0 0 0 8.0039062 3 L 8.0039062 9.0878906 L 6.3261719 2.7441406 A 1.0001 1.0001 0 0 0 5.359375 2 L 3.890625 2 z M 4.5546875 5 L 5.5039062 9 L 3.5039062 9 L 4.5546875 5 z M 12.003906 8 A 2 2 0 0 1 14.003906 10 A 2 2 0 0 1 12.003906 12 A 2 2 0 0 1 10.003906 10 A 2 2 0 0 1 12.003906 8 z" transform="translate(4 4)"/>
</svg>
