<svg xmlns="http://www.w3.org/2000/svg" width="24" height="24" version="1.1">
 <defs>
  <style id="current-color-scheme" type="text/css">
   .ColorScheme-Text { color:#c7d6d0; } .ColorScheme-Highlight { color:#4285f4; } .ColorScheme-NeutralText { color:#ff9800; } .ColorScheme-PositiveText { color:#4caf50; } .ColorScheme-NegativeText { color:#f44336; }
  </style>
 </defs>
 <g transform="translate(4,4)">
  <path style="fill:currentColor" class="ColorScheme-Text" d="M 10,1 C 5,1 1,4.5 1,10 V 11 H 2 V 10 C 2,5.5 5.5,2 10,2 H 11 V 1 Z"/>
  <path style="fill:currentColor" class="ColorScheme-Text" d="M 13,1.5 A 1.5,1.5 0 0 1 11.5,3 1.5,1.5 0 0 1 10,1.5 1.5,1.5 0 0 1 11.5,0 1.5,1.5 0 0 1 13,1.5 Z M 3,11.5 A 1.5,1.5 0 0 1 1.5,13 1.5,1.5 0 0 1 0,11.5 1.5,1.5 0 0 1 1.5,10 1.5,1.5 0 0 1 3,11.5 Z M 7,7 V 12 C 7,15 11.5,16 11.5,16 11.5,16 16,15 16,12 V 7 Z M 8,9 H 11 V 11 L 9,10 Z M 12,9 H 15 L 14,10 12,11 Z M 9,12 H 14 C 14,14 11.5,14 11.5,14 11.5,14 9,14 9,12 Z"/>
 </g>
</svg>
