<svg xmlns="http://www.w3.org/2000/svg" width="24" height="24" version="1.1">
 <defs>
  <style id="current-color-scheme" type="text/css">
   .ColorScheme-Text { color:#c7d6d0; } .ColorScheme-Highlight { color:#4285f4; } .ColorScheme-NeutralText { color:#ff9800; } .ColorScheme-PositiveText { color:#4caf50; } .ColorScheme-NegativeText { color:#f44336; }
  </style>
 </defs>
 <g transform="translate(4,4)">
  <path style="fill:currentColor" class="ColorScheme-Text" d="M 4,2 V 5 H 1 V 7 H 5 C 6,7 6,6 6,6 V 2 Z M 10,2 V 6 C 10,6 10,7 11,7 H 15 V 5 H 12 V 2 Z M 1,9 V 11 H 4 V 14 H 6 V 10 C 6,10 6,9 5,9 Z M 11,9 C 10,9 10,10 10,10 V 14 H 12 V 11 H 15 V 9 Z"/>
 </g>
</svg>
