<svg xmlns="http://www.w3.org/2000/svg" width="16" height="16" version="1.1">
 <defs>
  <style id="current-color-scheme" type="text/css">
   .ColorScheme-Text { color:#c7d6d0; } .ColorScheme-Highlight { color:#4285f4; } .ColorScheme-NeutralText { color:#ff9800; } .ColorScheme-PositiveText { color:#4caf50; } .ColorScheme-NegativeText { color:#f44336; }
  </style>
 </defs>
 <path style="fill:currentColor" class="ColorScheme-Text" d="M 7.7324219 1.0078125 C 3.8780985 1.1979209 0.76905277 4.5705708 1.0136719 8.515625 C 1.2124572 11.721493 3.5297944 14.316468 6.7050781 14.888672 C 8.0478977 15.130657 9.3916777 14.978451 10.71875 14.4375 C 12.007382 13.912215 12.562843 13.916722 13.998047 14.460938 C 14.382174 14.606596 14.712104 14.709683 14.732422 14.689453 C 14.752748 14.669225 14.635713 14.386213 14.470703 14.060547 C 13.960634 13.053865 13.827996 12.237417 14.044922 11.445312 C 14.101365 11.239218 14.286243 10.719056 14.458984 10.291016 C 14.879373 9.2493226 15.001925 8.6854958 15 7.7773438 C 14.996062 5.8832756 14.251376 4.1900402 12.837891 2.859375 C 11.67186 1.7616653 10.159082 1.1163837 8.5117188 1.0136719 C 8.2489117 0.99728594 7.9893768 0.99513856 7.7324219 1.0078125 z M 7.8671875 4 C 8.4742567 3.995093 9.0103647 4.0564187 9.3867188 4.171875 C 10.16653 4.411106 10.513652 4.9233808 10.128906 5.2636719 C 9.7908731 5.5626475 9.4693311 5.4918826 8.7929688 4.9726562 C 8.5627519 4.7959248 8.2278709 4.5868663 8.0507812 4.5078125 C 7.2935964 4.1698004 6.3632813 4.4717147 6.3632812 5.0097656 C 6.3632813 5.0879726 6.4510688 5.2490386 6.5605469 5.3671875 C 6.7684268 5.5915308 6.984237 5.6690559 8.6816406 6.6152344 C 9.8849478 7.2859898 10.504436 7.8071395 10.8125 8.4082031 C 11.191696 9.1948913 10.988262 10.337407 10.255859 11.021484 C 9.864867 11.393275 9.3621732 11.698883 8.8671875 11.84375 C 8.6447564 11.908848 8.2524082 11.975869 7.9941406 11.992188 C 6.753758 12.070538 5.7007138 11.554903 5.2226562 10.634766 C 4.9297496 10.067241 4.9226749 9.4158218 5.2246094 8.7324219 C 5.5831279 8.0423665 6.4238794 7.4685193 7.4375 7.2246094 C 7.6940345 7.1628783 7.9154716 7.0836933 7.9277344 7.0488281 C 7.9399995 7.013963 7.5553651 6.7078889 7.0742188 6.3671875 C 6.1029629 5.6794383 5.8963653 5.4855761 5.8867188 5.0761719 C 5.875617 4.6049391 6.2560151 4.2645571 7.0019531 4.0839844 C 7.2247947 4.0300401 7.5029463 4.0029435 7.8671875 4 z M 8.3261719 7.4179688 C 8.2779199 7.4178466 8.2242672 7.4235707 8.1503906 7.4335938 C 7.6381035 7.5031071 7.0740203 7.7567934 6.7480469 8.0644531 C 6.3227767 8.4658309 6.195324 8.8181945 6.1992188 9.5742188 C 6.2053773 10.457001 6.9616131 11.426747 8.0371094 11.417969 C 9.0713885 11.395727 9.6822025 10.723407 9.7890625 9.8652344 C 9.8672331 9.1091072 9.5367088 8.3664239 8.8476562 7.7519531 C 8.5492167 7.4858149 8.4709271 7.4183169 8.3261719 7.4179688 z"/>
</svg>
