<svg xmlns="http://www.w3.org/2000/svg" width="16" height="16" version="1.1">
 <defs>
  <style id="current-color-scheme" type="text/css">
   .ColorScheme-Text { color:#c7d6d0; } .ColorScheme-Highlight { color:#4285f4; } .ColorScheme-NeutralText { color:#ff9800; } .ColorScheme-PositiveText { color:#4caf50; } .ColorScheme-NegativeText { color:#f44336; }
  </style>
 </defs>
 <path style="fill:currentColor;opacity:0.3" class="ColorScheme-Text" d="M 12,1 7.9765625,5.7773438 9.6582031,7.2480469 10.519531,8 5.8300781,12.101562 8,14 11,11 v 4 h 4 V 1 Z"/>
 <path d="M 9,8 5,11.5 1,15 V 1 l 4,3.5 z" style="fill:currentColor" class="ColorScheme-Text"/>
</svg>
