<svg xmlns="http://www.w3.org/2000/svg" width="16" height="16" version="1.1">
 <defs>
  <style id="current-color-scheme" type="text/css">
   .ColorScheme-Text { color:#c7d6d0; } .ColorScheme-Highlight { color:#4285f4; } .ColorScheme-NeutralText { color:#ff9800; } .ColorScheme-PositiveText { color:#4caf50; } .ColorScheme-NegativeText { color:#f44336; }
  </style>
 </defs>
 <path style="fill:currentColor" class="ColorScheme-Text" d="M 12.261719,-2.8847976e-6 A 0.26473916,0.26473916 0 0 0 12,0.26366902 v 0.7363281 H 4 c 0,0 -0.708751,-0.013788 -1.447265,0.35546878 C 1.814221,1.7247227 0.99999995,2.6666638 0.99999995,3.9999971 V 11.999998 H 3 V 3.9999971 C 3,3.3333304 3.1857799,3.2752714 3.447266,3.1445283 3.708752,3.0137853 4,2.9999971 4,2.9999971 H 12.246094 12.5 14.736328 A 0.26473916,0.26473916 0 0 0 14.921875,2.5488252 L 12.451172,0.07812212 A 0.26473916,0.26473916 0 0 0 12.261719,-2.8847976e-6 Z M 13,3.9999971 v 8.0000009 c 0,0.666666 -0.185779,0.724726 -0.447266,0.855469 C 12.291248,12.98621 12,12.999998 12,12.999998 H 3.734375 1.263672 A 0.26473916,0.26473916 0 0 0 1.078125,13.45117 l 2.4707039,2.470703 A 0.26473916,0.26473916 0 0 0 3.738282,16.000003 0.26473916,0.26473916 0 0 0 4,15.734378 v -0.734375 h 8 c 0,0 0.708752,0.01379 1.447266,-0.355469 C 14.185779,14.275277 15,13.333336 15,12.000003 V 3.9999971 Z M 6,5.9999967 c -0.554,0 -1,0.4460002 -1,1.0000002 v 1 c 0,0.554 0.446,1 1,1 0.5540001,0 1.0000001,-0.446 1.0000001,-1 v -1 c 0,-0.554 -0.446,-1.0000002 -1.0000001,-1.0000002 z m 4,0 c -0.5539999,0 -0.9999999,0.4460002 -0.9999999,1.0000002 v 1 c 0,0.554 0.446,1 0.9999999,1 0.554,0 1,-0.446 1,-1 v -1 c 0,-0.554 -0.446,-1.0000002 -1,-1.0000002 z"/>
</svg>
