<svg xmlns="http://www.w3.org/2000/svg" width="16" height="16" version="1.1">
 <defs>
  <style id="current-color-scheme" type="text/css">
   .ColorScheme-Text { color:#c7d6d0; } .ColorScheme-Highlight { color:#4285f4; } .ColorScheme-NeutralText { color:#ff9800; } .ColorScheme-PositiveText { color:#4caf50; } .ColorScheme-NegativeText { color:#f44336; }
  </style>
 </defs>
 <path style="fill:currentColor" class="ColorScheme-Text" d="M 14.062178,11.5 A 7,7 0 0 0 11.5,1.9378222 7,7 0 0 0 1.9378223,4.5 7,7 0 0 0 4.5,14.062178 7,7 0 0 0 14.062178,11.5 Z m -1.732051,-1 A 5,5 0 0 1 6.3628719,12.722308 1.5,1.5 0 0 1 4.5669878,12.946152 1.5,1.5 0 0 1 3.9822702,10.966726 5,5 0 0 1 3.0337984,7.4376523 1.5,1.5 0 0 1 2.5538484,5.4330126 1.5,1.5 0 0 1 4.2227431,4.7299017 5,5 0 0 1 10.5,3.669873 a 5,5 0 0 1 0.07345,0.04466 1.5,1.5 0 0 1 1.72559,-0.1606856 1.5,1.5 0 0 1 0.549038,2.0490381 A 1.5,1.5 0 0 1 12.557954,5.9608624 5,5 0 0 1 12.330127,10.5 Z M 11.464102,10 a 4,4 0 0 0 0.174446,-3.6498052 1.5,1.5 0 0 1 -0.83951,-0.198271 1.5,1.5 0 0 1 -0.05048,-0.033656 L 8.7363406,7.7011833 A 1.5,1.5 0 0 1 8.6160255,8.9330127 1.5,1.5 0 0 1 7.0439454,9.6559353 L 6.4560546,10.674192 a 1.5,1.5 0 0 1 0.3491163,1.1375 A 4,4 0 0 0 11.464102,10 Z M 10.130662,5.3330237 A 1.5,1.5 0 0 1 10.075854,4.5842032 4,4 0 0 0 10,4.5358984 4,4 0 0 0 5.0586861,5.2937237 1.5,1.5 0 0 1 5.325808,6.4560545 l 1.0182568,0.5878908 a 1.5,1.5 0 0 1 1.7229226,-0.1599707 1.5,1.5 0 0 1 0.05048,0.03366 L 10.130662,5.3330237 Z M 6.1779202,9.1559351 A 1.5,1.5 0 0 1 5.8440651,7.9099707 L 4.8258079,7.32208 A 1.5,1.5 0 0 1 4.0182684,7.6700003 4,4 0 0 0 4.7160039,10.273986 1.5,1.5 0 0 1 5.5900293,10.174196 L 6.1779202,9.1559351 Z"/>
</svg>
