<svg xmlns="http://www.w3.org/2000/svg" width="22" height="22" version="1.1">
 <defs>
  <style id="current-color-scheme" type="text/css">
   .ColorScheme-Text { color:#c7d6d0; } .ColorScheme-Highlight { color:#4285f4; } .ColorScheme-NeutralText { color:#ff9800; } .ColorScheme-PositiveText { color:#4caf50; } .ColorScheme-NegativeText { color:#f44336; }
  </style>
 </defs>
 <path style="fill:currentColor" class="ColorScheme-Text" d="M 18,8 H 16 V 3 H 12 V 8 H 10 V 3 H 6 V 8 H 4 V 10 H 18 Z M 18,12 H 4 V 14 H 6 V 19 H 10 V 14 H 12 V 19 H 16 V 14 H 18 Z"/>
</svg>
