<svg xmlns="http://www.w3.org/2000/svg" width="22" height="22" viewBox="0 0 22 22">
 <defs>
  <style id="current-color-scheme" type="text/css">
   .ColorScheme-Text { color:#c7d6d0; } .ColorScheme-Highlight { color:#4285f4; } .ColorScheme-NeutralText { color:#ff9800; } .ColorScheme-PositiveText { color:#4caf50; } .ColorScheme-NegativeText { color:#f44336; }
  </style>
 </defs>
 <path style="fill:currentColor" class="ColorScheme-Text" d="m2.5 1v2h-1.5v4h1.5v2h-1.5v4h1.5v2h2v-2h1.5v-4h-1.5v-2h1.5v-4h-1.5v-2h-2zm9 0v2h-1.5v4h1.5v2h-1.5v4h1.5v2h2v-2h1.5v-4h-1.5v-2h1.5v-4h-1.5v-2h-2z" transform="translate(3 3)"/>
</svg>
