<svg xmlns="http://www.w3.org/2000/svg" width="22" height="22" version="1.1">
 <defs>
  <style id="current-color-scheme" type="text/css">
   .ColorScheme-Text { color:#c7d6d0; } .ColorScheme-Highlight { color:#4285f4; } .ColorScheme-NeutralText { color:#ff9800; } .ColorScheme-PositiveText { color:#4caf50; } .ColorScheme-NegativeText { color:#f44336; }
  </style>
 </defs>
 <g transform="translate(3,3)">
  <path style="fill:currentColor" class="ColorScheme-Text" d="M 5,1 V 3 H 1 V 4 H 5 V 6 H 11 V 4 H 15 V 3 H 11 V 1 Z M 6,7 8,10 10,7 Z M 1,10 V 15 H 6 V 13 H 7 V 12 H 6 V 10 Z M 10,10 V 12 H 9 V 13 H 10 V 15 H 15 V 10 Z"/>
 </g>
</svg>
