<svg xmlns="http://www.w3.org/2000/svg" width="22" height="22" version="1.1">
 <defs>
  <style id="current-color-scheme" type="text/css">
   .ColorScheme-Text { color:#c7d6d0; } .ColorScheme-Highlight { color:#4285f4; } .ColorScheme-NeutralText { color:#ff9800; } .ColorScheme-PositiveText { color:#4caf50; } .ColorScheme-NegativeText { color:#f44336; }
  </style>
 </defs>
 <g transform="translate(3,3)">
  <path style="fill:currentColor" class="ColorScheme-Text" d="M 2.5 0.5 L 1 2 L 6 7 C 3 7 3 10 3 10 C 3 10 3 13 6 13 L 12 13 L 14 15 L 15.5 13.5 L 2.5 0.5 z M 7 3 L 9 5 L 10 5 C 10 5 11 5 11 6 L 11 7 L 13 9 L 13 6 C 13 3 10 3 10 3 L 7 3 z M 6 9 L 8 9 L 10 11 L 6 11 C 5 11 5 10 5 10 C 5 10 5 9 6 9 z"/>
 </g>
</svg>
