<svg xmlns="http://www.w3.org/2000/svg" width="22" height="22" version="1.1">
 <defs>
  <style id="current-color-scheme" type="text/css">
   .ColorScheme-Text { color:#c7d6d0; } .ColorScheme-Highlight { color:#4285f4; } .ColorScheme-NeutralText { color:#ff9800; } .ColorScheme-PositiveText { color:#4caf50; } .ColorScheme-NegativeText { color:#f44336; }
  </style>
 </defs>
 <path style="fill:currentColor" class="ColorScheme-Text" d="M 4,5 V 7.996094 8.005894 18 H 17 V 16 H 6 V 9 8.005859 7.996094 6 5 Z m 8.003906,1.4707031 c 0.0039,0 -4.535156,4.5351559 -4.535156,4.5351559 H 6.0078125 v 1 h 1.875 l 4.1230465,-4.123047 2.123047,2.123047 0.0059,-0.0039 0.0039,0.0039 2.828125,-2.828125 c 0.003,0.005 -0.707031,-0.7070309 -0.707031,-0.7070309 l -2.125,2.1249999 -2.126954,-2.1249999 -0.002,0.00195 z M 10.599609,12 8.5996094,14 h -2.59375 v 1 h 3 V 14.9922 L 9.0136694,15 11.013669,13 h 1.591797 l 2.000001,2 h 2.40039 v -1 h -1.986328 l -2,-2 h -1.41406 z"/>
 <path style="opacity:0.5;fill:currentColor" class="ColorScheme-Text" d="M 16.46,6.67 14.14,9.001 14.136,8.997 14.13,9.001 12.007,6.878 7.884,11.001 H 6.009 v 5 h 11 V 7.223 Z"/>
</svg>
