<?xml version="1.0" encoding="UTF-8" standalone="no"?>
<svg
   xmlns:dc="http://purl.org/dc/elements/1.1/"
   xmlns:cc="http://creativecommons.org/ns#"
   xmlns:rdf="http://www.w3.org/1999/02/22-rdf-syntax-ns#"
   xmlns:svg="http://www.w3.org/2000/svg"
   xmlns="http://www.w3.org/2000/svg"
   xmlns:sodipodi="http://sodipodi.sourceforge.net/DTD/sodipodi-0.dtd"
   xmlns:inkscape="http://www.inkscape.org/namespaces/inkscape"
   width="22"
   height="22"
   version="1.1"
   id="svg7"
   sodipodi:docname="view-financial-account-liability-closed@22x22.svg"
   inkscape:version="0.92.5 (2060ec1f9f, 2020-04-08)">
  <metadata
     id="metadata11">
    <rdf:RDF>
      <cc:Work
         rdf:about="">
        <dc:format>image/svg+xml</dc:format>
        <dc:type
           rdf:resource="http://purl.org/dc/dcmitype/StillImage" />
      </cc:Work>
    </rdf:RDF>
  </metadata>
  <sodipodi:namedview
     pagecolor="#ffffff"
     bordercolor="#666666"
     borderopacity="1"
     objecttolerance="10"
     gridtolerance="10"
     guidetolerance="10"
     inkscape:pageopacity="0"
     inkscape:pageshadow="2"
     inkscape:window-width="622"
     inkscape:window-height="436"
     id="namedview9"
     showgrid="false"
     inkscape:zoom="14.75"
     inkscape:cx="8"
     inkscape:cy="8"
     inkscape:window-x="0"
     inkscape:window-y="0"
     inkscape:window-maximized="0"
     inkscape:current-layer="svg7" />
  <defs
     id="defs3">
    <style
       id="current-color-scheme"
       type="text/css">
   .ColorScheme-Text { color:#c7d6d0; } .ColorScheme-Highlight { color:#4285f4; } .ColorScheme-NeutralText { color:#ff9800; } .ColorScheme-PositiveText { color:#4caf50; } .ColorScheme-NegativeText { color:#f44336; }
  </style>
  </defs>
  <g transform="translate(3,3)"
     id="g14">
    <path
       id="path5"
       d="M 11 1 C 9.338 1 8 2.338 8 4 C 8 5.662 9.338 7 11 7 C 12.662 7 14 5.662 14 4 C 14 2.338 12.662 1 11 1 z M 0 6 L 0 7 L 4 7 L 4 8 L 5 8 L 5 9 L 6 9 L 6 13 L 5 13 L 5 14 L 4 14 L 4 15 L 0 15 L 0 16 L 7 16 L 7 6 L 0 6 z M 0 8 L 0 9.2773438 C 0.59563287 9.6237092 1 10.261342 1 11 C 1 11.738658 0.59563287 12.376291 0 12.722656 L 0 14 L 3 14 L 3 13 L 4 13 L 4 12 L 5 12 L 5 10 L 4 10 L 4 9 L 3 9 L 3 8 L 0 8 z M 11 8 C 10.353654 8 9.562365 8.2005634 9 8.4277344 L 9 14 L 16 14 L 16 13 C 16 10.22998 13.77002 8 11 8 z"
       class="ColorScheme-Text"
       style="opacity:0.3;fill:currentColor" />
  </g>
</svg>
