<svg xmlns="http://www.w3.org/2000/svg" width="22" height="22" version="1.1">
 <defs>
  <style id="current-color-scheme" type="text/css">
   .ColorScheme-Text { color:#c7d6d0; } .ColorScheme-Highlight { color:#4285f4; } .ColorScheme-NeutralText { color:#ff9800; } .ColorScheme-PositiveText { color:#4caf50; } .ColorScheme-NegativeText { color:#f44336; }
  </style>
 </defs>
 <g transform="translate(3,3)">
  <path style="fill:currentColor" class="ColorScheme-Text" d="M 9.5,9 C 9.5,9 9,9 9,9.5 V 15.5 C 9,16 9.5,16 9.5,16 H 15.5 C 15.5,16 16,16 16,15.5 V 9.5 C 16,9 15.5,9 15.5,9 Z M 10,12 H 15 V 15 H 10 Z M 2,1 C 2,1 1,1 1,2 V 14 C 1,15 2,15 2,15 H 8 V 13 H 3 V 6 H 13 V 8 H 15 V 2 C 15,1 14,1 14,1 Z"/>
 </g>
</svg>
