<svg xmlns="http://www.w3.org/2000/svg" width="22" height="22" version="1.1">
 <defs>
  <style id="current-color-scheme" type="text/css">
   .ColorScheme-Text { color:#c7d6d0; } .ColorScheme-Highlight { color:#4285f4; } .ColorScheme-NeutralText { color:#ff9800; } .ColorScheme-PositiveText { color:#4caf50; } .ColorScheme-NegativeText { color:#f44336; }
  </style>
 </defs>
 <g transform="translate(3,3)">
  <path style="fill:currentColor" class="ColorScheme-Text" d="M 8.5254,0.13284 8.4961,0.16213 C 8.0959,0.56226 7.8721,1.0932 7.8691,1.6563 7.8663,2.1787 8.0531,2.672 8.3965,3.0566 L 5.0566,6.3965 C 4.672,6.0531 4.1787,5.8683 3.6562,5.8711 3.0932,5.8741 2.5622,6.0959 2.1621,6.4961 L 2.1328,6.5254 C 1.9575,6.7006 1.9554,6.9848 2.1289,7.1582 L 4.7187,9.7461 0.39257,14.074 0,16 1.9258,15.607 6.2539,11.281 8.8418,13.871 C 8.9285,13.958 9.044,14.001 9.1582,14 9.2724,13.999 9.3871,13.955 9.4746,13.867 L 9.5039,13.838 C 9.9041,13.438 10.126,12.907 10.129,12.344 10.132,11.821 9.9448,11.328 9.6016,10.943 L 12.943,7.6016 C 13.328,7.9448 13.821,8.1317 14.344,8.1289 14.907,8.1259 15.438,7.9041 15.838,7.5039 L 15.867,7.4746 C 15.955,7.3871 15.999,7.2724 16,7.1582 16.001,7.044 15.958,6.9285 15.871,6.8418 L 9.1582,0.12893 C 9.0715,0.04219 8.9561,0 8.8418,0 8.7275,0 8.613,0.04517 8.5254,0.13284 Z"/>
 </g>
</svg>
